{
  "total": 253306,
  "page": 1,
  "per_page": 1,
  "paging": {
    "next": "/videos?page=2&per_page=1&query=apple",
    "previous": null,
    "first": "/videos?page=1&per_page=1&query=apple",
    "last": "/videos?page=253306&per_page=1&query=apple"
  },
  "data": [
    {
      "uri": "/videos/68084005",
      "name": "Apple - Designed by Apple",
      "description": "Copyright Apple Inc.",
      "type": "video",
      "link": "https://vimeo.com/68084005",
      "player_embed_url": "https://player.vimeo.com/video/68084005?h=6e6ccb2e29",
      "duration": 88,
      "width": 1136,
      "language": null,
      "height": 640,
      "embed": {
        "html": "<iframe src=\"https://player.vimeo.com/video/68084005?h=6e6ccb2e29&amp;title=0&amp;byline=0&amp;portrait=0&amp;speed=0&amp;badge=0&amp;autopause=0&amp;player_id=0&amp;app_id=263485\" width=\"1136\" height=\"640\" frameborder=\"0\" allow=\"autoplay; fullscreen; picture-in-picture\" allowfullscreen title=\"Apple - Designed by Apple\"></iframe>",
        "badges": {
          "hdr": false,
          "live": {
            "streaming": false,
            "archived": false
          },
          "staff_pick": {
            "normal": false,
            "best_of_the_month": false,
            "best_of_the_year": false,
            "premiere": false
          },
          "vod": false,
          "weekend_challenge": false
        }
      },
      "created_time": "2013-06-10T21:08:39+00:00",
      "modified_time": "2023-02-10T04:37:11+00:00",
      "release_time": "2013-06-10T21:08:39+00:00",
      "content_rating": [ "unrated" ],
      "content_rating_class": "unrated",
      "rating_mod_locked": false,
      "license": null,
      "privacy": {
        "view": "anybody",
        "embed": "public",
        "download": false,
        "add": true,
        "comments": "anybody"
      },
      "pictures": {
        "uri": "/videos/68084005/pictures/440246456",
        "active": true,
        "type": "custom",
        "base_link": "https://i.vimeocdn.com/video/440246456-c10a4cef5488260bbb41cf35b958ffff7ce6c977caec848d74c4bc8604ed664f-d",
        "sizes": [
          {
            "width": 100,
            "height": 75,
            "link": "https://i.vimeocdn.com/video/440246456-c10a4cef5488260bbb41cf35b958ffff7ce6c977caec848d74c4bc8604ed664f-d_100x75?r=pad",
            "link_with_play_button": "https://i.vimeocdn.com/filter/overlay?src0=https%3A%2F%2Fi.vimeocdn.com%2Fvideo%2F440246456-c10a4cef5488260bbb41cf35b958ffff7ce6c977caec848d74c4bc8604ed664f-d_100x75&src1=http%3A%2F%2Ff.vimeocdn.com%2Fp%2Fimages%2Fcrawler_play.png"
          },
          {
            "width": 200,
            "height": 150,
            "link": "https://i.vimeocdn.com/video/440246456-c10a4cef5488260bbb41cf35b958ffff7ce6c977caec848d74c4bc8604ed664f-d_200x150?r=pad",
            "link_with_play_button": "https://i.vimeocdn.com/filter/overlay?src0=https%3A%2F%2Fi.vimeocdn.com%2Fvideo%2F440246456-c10a4cef5488260bbb41cf35b958ffff7ce6c977caec848d74c4bc8604ed664f-d_200x150&src1=http%3A%2F%2Ff.vimeocdn.com%2Fp%2Fimages%2Fcrawler_play.png"
          },
          {
            "width": 295,
            "height": 166,
            "link": "https://i.vimeocdn.com/video/440246456-c10a4cef5488260bbb41cf35b958ffff7ce6c977caec848d74c4bc8604ed664f-d_295x166?r=pad",
            "link_with_play_button": "https://i.vimeocdn.com/filter/overlay?src0=https%3A%2F%2Fi.vimeocdn.com%2Fvideo%2F440246456-c10a4cef5488260bbb41cf35b958ffff7ce6c977caec848d74c4bc8604ed664f-d_295x166&src1=http%3A%2F%2Ff.vimeocdn.com%2Fp%2Fimages%2Fcrawler_play.png"
          },
          {
            "width": 640,
            "height": 360,
            "link": "https://i.vimeocdn.com/video/440246456-c10a4cef5488260bbb41cf35b958ffff7ce6c977caec848d74c4bc8604ed664f-d_640x360?r=pad",
            "link_with_play_button": "https://i.vimeocdn.com/filter/overlay?src0=https%3A%2F%2Fi.vimeocdn.com%2Fvideo%2F440246456-c10a4cef5488260bbb41cf35b958ffff7ce6c977caec848d74c4bc8604ed664f-d_640x360&src1=http%3A%2F%2Ff.vimeocdn.com%2Fp%2Fimages%2Fcrawler_play.png"
          },
          {
            "width": 960,
            "height": 540,
            "link": "https://i.vimeocdn.com/video/440246456-c10a4cef5488260bbb41cf35b958ffff7ce6c977caec848d74c4bc8604ed664f-d_960x540?r=pad",
            "link_with_play_button": "https://i.vimeocdn.com/filter/overlay?src0=https%3A%2F%2Fi.vimeocdn.com%2Fvideo%2F440246456-c10a4cef5488260bbb41cf35b958ffff7ce6c977caec848d74c4bc8604ed664f-d_960x540&src1=http%3A%2F%2Ff.vimeocdn.com%2Fp%2Fimages%2Fcrawler_play.png"
          },
          {
            "width": 1280,
            "height": 720,
            "link": "https://i.vimeocdn.com/video/440246456-c10a4cef5488260bbb41cf35b958ffff7ce6c977caec848d74c4bc8604ed664f-d_1280x720?r=pad",
            "link_with_play_button": "https://i.vimeocdn.com/filter/overlay?src0=https%3A%2F%2Fi.vimeocdn.com%2Fvideo%2F440246456-c10a4cef5488260bbb41cf35b958ffff7ce6c977caec848d74c4bc8604ed664f-d_1280x720&src1=http%3A%2F%2Ff.vimeocdn.com%2Fp%2Fimages%2Fcrawler_play.png"
          },
          {
            "width": 1920,
            "height": 1080,
            "link": "https://i.vimeocdn.com/video/440246456-c10a4cef5488260bbb41cf35b958ffff7ce6c977caec848d74c4bc8604ed664f-d_1920x1080?r=pad",
            "link_with_play_button": "https://i.vimeocdn.com/filter/overlay?src0=https%3A%2F%2Fi.vimeocdn.com%2Fvideo%2F440246456-c10a4cef5488260bbb41cf35b958ffff7ce6c977caec848d74c4bc8604ed664f-d_1920x1080&src1=http%3A%2F%2Ff.vimeocdn.com%2Fp%2Fimages%2Fcrawler_play.png"
          }
        ],
        "resource_key": "08cb299db56a58aa868ff4a447f63edf9e667f03",
        "default_picture": false
      },
      "tags": [  ],
      "stats": { "plays": 110140 },
      "categories": [  ],
      "uploader": {
        "pictures": {
          "uri": null,
          "active": false,
          "type": "default",
          "base_link": "https://i.vimeocdn.com/portrait/defaults-blue",
          "sizes": [
            {
              "width": 30,
              "height": 30,
              "link": "https://i.vimeocdn.com/portrait/defaults-blue_30x30"
            },
            {
              "width": 72,
              "height": 72,
              "link": "https://i.vimeocdn.com/portrait/defaults-blue_72x72"
            },
            {
              "width": 75,
              "height": 75,
              "link": "https://i.vimeocdn.com/portrait/defaults-blue_75x75"
            },
            {
              "width": 100,
              "height": 100,
              "link": "https://i.vimeocdn.com/portrait/defaults-blue_100x100"
            },
            {
              "width": 144,
              "height": 144,
              "link": "https://i.vimeocdn.com/portrait/defaults-blue_144x144"
            },
            {
              "width": 216,
              "height": 216,
              "link": "https://i.vimeocdn.com/portrait/defaults-blue_216x216"
            },
            {
              "width": 288,
              "height": 288,
              "link": "https://i.vimeocdn.com/portrait/defaults-blue_288x288"
            },
            {
              "width": 300,
              "height": 300,
              "link": "https://i.vimeocdn.com/portrait/defaults-blue_300x300"
            },
            {
              "width": 360,
              "height": 360,
              "link": "https://i.vimeocdn.com/portrait/defaults-blue_360x360"
            }
          ],
          "resource_key": "06cd312fcc3908e2d839aeb00ccaaf434acb0859",
          "default_picture": true
        }
      },
      "metadata": {
        "connections": {
          "comments": {
            "uri": "/videos/68084005/comments",
            "options": [
              "GET",
              "POST"
            ],
            "total": 0
          },
          "credits": {
            "uri": "/videos/68084005/credits",
            "options": [
              "GET",
              "POST"
            ],
            "total": 1
          },
          "likes": {
            "uri": "/videos/68084005/likes",
            "options": [ "GET" ],
            "total": 863
          },
          "pictures": {
            "uri": "/videos/68084005/pictures",
            "options": [
              "GET",
              "POST"
            ],
            "total": 1
          },
          "texttracks": {
            "uri": "/videos/68084005/texttracks",
            "options": [
              "GET",
              "POST"
            ],
            "total": 0
          },
          "related": {
            "uri": "/videos?page=1&per_page=1&query=apple&offset=1",
            "options": [ "GET" ]
          },
          "recommendations": {
            "uri": "/videos/68084005/recommendations",
            "options": [ "GET" ]
          },
          "albums": {
            "uri": "/videos/68084005/albums",
            "options": [
              "GET",
              "PATCH"
            ],
            "total": 0
          },
          "available_albums": {
            "uri": "/videos/68084005/available_albums",
            "options": [ "GET" ],
            "total": 0
          },
          "available_channels": {
            "uri": "/videos/68084005/available_channels",
            "options": [ "GET" ],
            "total": 0
          }
        },
        "interactions": {
          "watchlater": {
            "uri": "/users/194666046/watchlater/68084005",
            "options": [
              "GET",
              "PUT",
              "DELETE"
            ],
            "added": false,
            "added_time": null
          },
          "like": {
            "uri": "/users/194666046/likes/68084005",
            "options": [
              "GET",
              "PUT",
              "DELETE"
            ],
            "added": false,
            "added_time": null
          },
          "report": {
            "uri": "/videos/68084005/report",
            "options": [ "POST" ],
            "reason": [
              "pornographic",
              "harassment",
              "ripoff",
              "incorrect rating",
              "spam",
              "causes harm",
              "csam"
            ]
          },
          "can_update_privacy_to_public": {
            "uri": "/videos/68084005",
            "options": [ "PATCH" ]
          },
          "validate": {
            "uri": "/videos/68084005/validate",
            "options": [ "PUT" ]
          }
        },
        "is_vimeo_create": false,
        "is_screen_record": false
      },
      "user": {
        "uri": "/users/18866476",
        "name": "Apple Is Awesome",
        "link": "https://vimeo.com/user18866476",
        "capabilities": {
          "hasLiveSubscription": false,
          "hasEnterpriseLihp": false,
          "hasSvvTimecodedComments": false,
          "hasSimplifiedEnterpriseAccount": false
        },
        "location": "",
        "gender": "",
        "bio": null,
        "short_bio": null,
        "created_time": "2013-06-10T21:05:31+00:00",
        "pictures": {
          "uri": null,
          "active": false,
          "type": "default",
          "base_link": "https://i.vimeocdn.com/portrait/defaults-blue",
          "sizes": [
            {
              "width": 30,
              "height": 30,
              "link": "https://i.vimeocdn.com/portrait/defaults-blue_30x30"
            },
            {
              "width": 72,
              "height": 72,
              "link": "https://i.vimeocdn.com/portrait/defaults-blue_72x72"
            },
            {
              "width": 75,
              "height": 75,
              "link": "https://i.vimeocdn.com/portrait/defaults-blue_75x75"
            },
            {
              "width": 100,
              "height": 100,
              "link": "https://i.vimeocdn.com/portrait/defaults-blue_100x100"
            },
            {
              "width": 144,
              "height": 144,
              "link": "https://i.vimeocdn.com/portrait/defaults-blue_144x144"
            },
            {
              "width": 216,
              "height": 216,
              "link": "https://i.vimeocdn.com/portrait/defaults-blue_216x216"
            },
            {
              "width": 288,
              "height": 288,
              "link": "https://i.vimeocdn.com/portrait/defaults-blue_288x288"
            },
            {
              "width": 300,
              "height": 300,
              "link": "https://i.vimeocdn.com/portrait/defaults-blue_300x300"
            },
            {
              "width": 360,
              "height": 360,
              "link": "https://i.vimeocdn.com/portrait/defaults-blue_360x360"
            }
          ],
          "resource_key": "06cd312fcc3908e2d839aeb00ccaaf434acb0859",
          "default_picture": true
        },
        "websites": [  ],
        "metadata": {
          "connections": {
            "albums": {
              "uri": "/users/18866476/albums",
              "options": [ "GET" ],
              "total": 0
            },
            "appearances": {
              "uri": "/users/18866476/appearances",
              "options": [ "GET" ],
              "total": 0
            },
            "channels": {
              "uri": "/users/18866476/channels",
              "options": [ "GET" ],
              "total": 0
            },
            "feed": {
              "uri": "/users/18866476/feed",
              "options": [ "GET" ]
            },
            "followers": {
              "uri": "/users/18866476/followers",
              "options": [ "GET" ],
              "total": 105
            },
            "following": {
              "uri": "/users/18866476/following",
              "options": [ "GET" ],
              "total": 0
            },
            "groups": {
              "uri": "/users/18866476/groups",
              "options": [ "GET" ],
              "total": 0
            },
            "likes": {
              "uri": "/users/18866476/likes",
              "options": [ "GET" ],
              "total": 0
            },
            "membership": {
              "uri": "/users/18866476/membership/",
              "options": [ "PATCH" ]
            },
            "moderated_channels": {
              "uri": "/users/18866476/channels?filter=moderated",
              "options": [ "GET" ],
              "total": 0
            },
            "portfolios": {
              "uri": "/users/18866476/portfolios",
              "options": [ "GET" ],
              "total": 0
            },
            "videos": {
              "uri": "/users/18866476/videos",
              "options": [ "GET" ],
              "total": 1
            },
            "shared": {
              "uri": "/users/18866476/shared/videos",
              "options": [ "GET" ],
              "total": 0
            },
            "pictures": {
              "uri": "/users/18866476/pictures",
              "options": [
                "GET",
                "POST"
              ],
              "total": 0
            },
            "folders_root": {
              "uri": "/users/18866476/folders/root",
              "options": [ "GET" ]
            },
            "teams": {
              "uri": "/users/18866476/teams",
              "options": [ "GET" ],
              "total": 1
            }
          },
          "interactions": {
            "follow": {
              "added": false,
              "added_time": null,
              "uri": "/users/194666046/following/18866476",
              "options": [
                "GET",
                "PUT",
                "DELETE"
              ]
            },
            "block": {
              "uri": "/me/block/18866476",
              "options": [
                "PUT",
                "DELETE"
              ],
              "added": false,
              "added_time": null
            },
            "report": {
              "uri": "/users/18866476/report",
              "options": [ "POST" ],
              "reason": [
                "inappropriate avatar",
                "spammy",
                "bad videos",
                "creepy",
                "not playing nice",
                "impersonation",
                "inappropriate job post"
              ]
            }
          }
        },
        "location_details": {
          "formatted_address": "",
          "latitude": null,
          "longitude": null,
          "city": null,
          "state": null,
          "neighborhood": null,
          "sub_locality": null,
          "state_iso_code": null,
          "country": null,
          "country_iso_code": null
        },
        "skills": [  ],
        "available_for_hire": false,
        "can_work_remotely": false,
        "resource_key": "b2cf3f3f08cb18a090410068b8ebcbcad78f7ffd",
        "account": "basic"
      },
      "play": { "status": "playable" },
      "app": null,
      "status": "available",
      "resource_key": "8ea39b2830fd0cb9ee380f44708d60d09cd378c5",
      "upload": {
        "status": "complete",
        "link": null,
        "upload_link": null,
        "complete_uri": null,
        "form": null,
        "approach": null,
        "size": null,
        "redirect_url": null
      },
      "transcode": {
        "status": "complete"
      },
      "is_playable": true,
      "has_audio": true
    }
  ]
}